db.contingencia.insert({
    "fileName" : "28042020130355925400020002.acda",
    "retries" : 0,
    "fileDate" : "28:04:2020",
    "contingencyFile" : "123456712345400020000000000000000000000000000000000000045||9|13122019|22112019|123456|40002|BANORTE|Juan Carlos Cocoletzi|40|400000400000400000|MOPS870925AI1|Citi Banamex|FRANCISCO MORALES GARCIA|40|012180001135124014|AYSA871101YH1|Concepto del Pago|100.09|100.09|NA|NA|0|0|NA|0|0.00|NA|NA|NA|NA|1271238askdjfhkdeert|Error getting digital certificate||                                                                                                                                                                                                                                                                                                                                                                                                                                                                                                                                                                                                                                                                                                                                                                                                                                                                                                                                                                                                                                                                                                                                                                                                                                                                                                                                                                                                                                                                                                                                                                                                   123456712345400020000000000000000000000000000000000000043||7|13122019|22112019|123456|40002|BANORTE|Juan Carlos Cocoletzi|40|400000400000400000|MOPS870925AI1|Citi Banamex|FRANCISCO MORALES GARCIA|40|012180001135124014|AYSA871101YH1|Concepto del Pago|100.09|100.09|NA|NA|0|0|NA|0|0.00|NA|NA|NA|NA|1271238askdjfhkdeert|Error getting digital certificate||                                                                                                                                                                                                                                                                                                                                                                                                                                                                                                                                                                                                                                                                                                                                                                                                                                                                                                                                                                                                                                                                                                                                                                                                                                                                                                                                                                                                                                                                                                                                                                                                   ",
    "cdas" : [ 
        "||9|13122019|22112019|123456|40002|BANORTE|Juan Carlos Cocoletzi|40|400000400000400000|MOPS870925AI1|Citi Banamex|FRANCISCO MORALES GARCIA|40|012180001135124014|AYSA871101YH1|Concepto del Pago|100.09|100.09|NA|NA|0|0|NA|0|0.00|NA|NA|NA|NA|1271238askdjfhkdeert|Error getting digital certificate||", 
        "||7|13122019|22112019|123456|40002|BANORTE|Juan Carlos Cocoletzi|40|400000400000400000|MOPS870925AI1|Citi Banamex|FRANCISCO MORALES GARCIA|40|012180001135124014|AYSA871101YH1|Concepto del Pago|100.09|100.09|NA|NA|0|0|NA|0|0.00|NA|NA|NA|NA|1271238askdjfhkdeert|Error getting digital certificate||"
    ]
})







db.getCollection('sepipDB').insert(
{
    "customerHubModel" : {
        "originalPaymentFolio" : 30,
        "trackingKey" : "506",
        "paymentType" : "12",
        "speiOperationDate" : 13122019,
        "calenderDatePayment" : 22112019,
        "calenderTimePayment" : "123456",
        "cdaParticipientSPEIKey" : 40002,
        "nameOfTransferOrderIssuerParticipant" : "BANORTE",
        "orderingName" : "Juan Carlos Cocoletzi",
        "ordererAccountType" : 40,
        "orderingAccount" : "400000400000400000",
        "rfcOrCurpPayer" : "MOPS870925AI1",
        "typeOfBeneficiaryAccount" : 40,
        "conceptOfPayment" : "Concepto del Pago",
        "ivaAmount" : "100.09",
        "amountOfPayment" : "100.09",
        "BeneficiaryAccountType2" : 0,
        "digitalCollectionSchemeFolio" : "NA",
        "paymentOfTheTransferFee" : 0,
        "transferFeeAmount" : "0.00",
        "buyerCellNumberAliases" : "NA",
        "digitBuyersVerifier" : "NA",
        "mombreDelParticipanteReceptor" : "Citi Banamex",
        "nombreBeneficiario" : "FRANCISCO MORALES GARCIA",
        "cuentaBeneficiario" : "012180001135124014",
        "rFCOCurpBeneficiario" : "AYSA871101YH1",
        "nombreBeneficiario2" : "NA",
        "rFCOCurpBeneficiario2" : "NA",
        "cuentaBeneficiario2" : "0",
        "aliasDelNumeroCelularDelVendedor" : "NA",
        "digitoVerificadorDelVendedor" : "NA",
        "numeroDeSerieDelCertificado" : "1271238askdjfhkdeert",
        "selloDigital" : "tNygkSQCZfDnsl4gy70H1krEjjHJwIgky8j+DBM9dDsZNCCR0PXrFEFSxaYZQdswWv32TaJr6UD01CblsNktwgrthU1IzQ+xDOHqwKixa5Duz9YEx5kabwZhhaAzx+BY8fIZl+0ePMw3/s2+wCqtK+2/9xfQHNTUSzPisBa5jeA=",
        "strSpeiOperationDate" : "13122019",
        "strCalenderDatePayment" : "22112019",
        "speiOperationDateFormat" : ISODate("2019-11-22T06:00:00.000Z"),
        "originalString" : "||12|13122019|22112019|123456|40002|BANORTE|Juan Carlos Cocoletzi|40|400000400000400000|MOPS870925AI1|Citi Banamex|FRANCISCO MORALES GARCIA|40|012180001135124014|AYSA871101YH1|Concepto del Pago|100.09|100.09|NA|NA|0|0|NA|0|0.00|NA|NA|NA|NA|1271238askdjfhkdeert||",
        "CDA" : "||12|13122019|22112019|123456|40002|BANORTE|Juan Carlos Cocoletzi|40|400000400000400000|MOPS870925AI1|Citi Banamex|FRANCISCO MORALES GARCIA|40|012180001135124014|AYSA871101YH1|Concepto del Pago|100.09|100.09|NA|NA|0|0|NA|0|0.00|NA|NA|NA|NA|1271238askdjfhkdeert|tNygkSQCZfDnsl4gy70H1krEjjHJwIgky8j+DBM9dDsZNCCR0PXrFEFSxaYZQdswWv32TaJr6UD01CblsNktwgrthU1IzQ+xDOHqwKixa5Duz9YEx5kabwZhhaAzx+BY8fIZl+0ePMw3/s2+wCqtK+2/9xfQHNTUSzPisBa5jeA=||",
        "calenderTimePaymentMS" : 45296000,
        "folioCDA" : NumberLong(1584470886535),
        "folioPaquete" : NumberLong(1585249368100000001)
    },
    "_class" : "com.city.sepip.model.SepipDB",
    "errorCode2" : "43",
    "errorMessage2" : "No existe la Orden de Transferencia a la cual asignar la CDA"
}

)