[{
        "trackingKey" : "1",
        "paymentType" : "3",
        "speiOperationDate" : 4122019,
        "calenderDatePayment" : 16112019,
        "calenderTimePayment" : "123456",
        "cdaParticipientSPEIKey" : 40002,
        "nameOfTransferOrderIssuerParticipant" : "BANCOMER",
        "orderingName" : "Juan Perez",
        "ordererAccountType" : 40,
        "orderingAccount" : "400000400000400000",
        "rfcOrCurpPayer" : "MOPS870925AI1",
        "typeOfBeneficiaryAccount" : 40,
        "conceptOfPayment" : "Concepto del Pago",
        "ivaAmount" : "100.09",
        "amountOfPayment" : "100.09",
        "BeneficiaryAccountType2" : 0,
        "digitalCollectionSchemeFolio" : "NA",
        "paymentOfTheTransferFee" : 0,
        "transferFeeAmount" : "0.00",
        "buyerCellNumberAliases" : "NA",
        "digitBuyersVerifier" : "NA",
        "mombreDelParticipanteReceptor" : "BBVA BANCOMER",
        "nombreBeneficiario" : "FRANCISCO MORALES GARCIA",
        "cuentaBeneficiario" : "012180001135124014",
        "rFCOCurpBeneficiario" : "AYSA871101YH1",
        "nombreBeneficiario2" : "NA",
        "rFCOCurpBeneficiario2" : "NA",
        "cuentaBeneficiario2" : 0,
        "aliasDelNumeroCelularDelVendedor" : "NA",
        "digitoVerificadorDelVendedor" : "NA",
        "numeroDeSerieDelCertificado" : "1271238askdjfhkdeert",
        "selloDigital" : "321321321321321321321321321321321321321321321",
        "strSpeiOperationDate" : "04122019",
        "strCalenderDatePayment" : "16112019"
    }
]